TidyTuesday ML from Julia Silge
…
# A workflow will help me to put all the pieces together 
wf <- workflow() %>%
  add_recipe(office_rec)

lasso_fit <- wf %>%
  add_model(lasso_spec) %>%
  fit(data = office_train)
  
lasso_fit %>%
  # get the actual results
  pull_workflow_fit() %>%
  tidy() %>% 
  arrange(dev.ratio)

## # A tibble: 1,616 x 5
##    term         step estimate lambda dev.ratio
##    <chr>       <dbl>    <dbl>  <dbl>     <dbl>
##  1 (Intercept)     1   8.34    0.233    0     
##  2 (Intercept)     2   8.34    0.212    0.0321
##  3 michael         2   0.0208  0.212    0.0321
##  4 (Intercept)     3   8.34    0.193    0.0587
##  5 michael         3   0.0397  0.193    0.0587
##  6 (Intercept)     4   8.34    0.176    0.0808
##  7 michael         4   0.0569  0.176    0.0808
##  8 (Intercept)     5   8.34    0.160    0.0992
##  9 michael         5   0.0726  0.160    0.0992
## 10 (Intercept)     6   8.34    0.146    0.123 
## #  with 1,606 more rows
…
